431 Project B Sample Study 2 Report – 431 Project B
…
diabetes
Binary
Does subject have a diabetes diagnosis: No or Yes

tobacco
3 level Cat.
subject’s tobacco use at baseline: never, quit (former), current

3.2 Print the Tibble

First, we’ll provide a printout of the tibble, which confirms that we have one.

hbp_a1

# A tibble: 999 × 7
   subj_id  sbp2  sbp1   age  bmi1 diabetes tobacco
   <chr>   <dbl> <dbl> <dbl> <dbl> <fct>    <fct>  
 1 A0001     138   147    58  24.4 No       never  
 2 A0004     134   134    65  50.5 No       never  
 3 A0005     140   170    61  29.8 Yes      current
 4 A0013     143   118    51  41.8 No       quit   
 5 A0015     162   132    61  31.0 No       never  
 6 A0017     141   110    45  33.0 No       current
 7 A0018     101   127    40  36.3 Yes      never  
 8 A0019     154   152    50  30.8 Yes      never  
 9 A0020     111   125    43  23.1 No       current
10 A0025     154   161    46  NA   No       never  
# ℹ 989 more rows
…
