431 Project B Sample Study 1 Report – 431 Project B
…
We can see the subjects who have missing values in several ways, including…

miss_case_summary(sur15)

# A tibble: 53 × 3
    case n_miss pct_miss
   <int>  <int>    <dbl>
 1     4      2    16.7 
 2    29      2    16.7 
 3    50      2    16.7 
 4    16      1     8.33
 5     1      0     0   
 6     2      0     0   
 7     3      0     0   
 8     5      0     0   
 9     6      0     0   
10     7      0     0   
# ℹ 43 more rows
…
medium_r
Cat-3
Movies, TV, Other: Which medium do you use most to get your fictional stories (containing plot)?

fiction_r
Cat-4
Comedy, Drama, Fantasy/SF, Other: Which type of fictional stories do you consume most?

3.2 Analytic Tibble

Now, I’ll prove that sur_15 is a tibble by printing it.

sur_15

# A tibble: 49 × 12
   s_id  r_pre r_now comfort_431 height_r weight_r   bmi r_before english
   <chr> <dbl> <dbl>       <dbl>    <dbl>    <dbl> <dbl> <fct>    <fct>  
 1 501       0    70          90     68.1      162  24.6 Yes      No     
 2 502       0    70          50     67        151  23.6 No       Yes    
 3 503       0    10          70     62.5      127  22.9 No       Yes    
 4 505      80    90          85     70        178  25.5 Yes      Yes    
 5 506       0    50          80     73        145  19.1 No       Yes    
 6 507      50    50          50     74        320  41.1 Yes      Yes    
 7 508      60    75          80     70        165  23.7 Yes      No     
 8 509       0    50          75     64        135  23.2 No       Yes    
 9 510      30    30          50     69        155  22.9 No       Yes    
10 511       0    50          88     65        202  33.6 No       Yes    
# ℹ 39 more rows
# ℹ 3 more variables: grades_r <fct>, medium_r <fct>, fiction_r <fct>
…
